^C:\USERS\АЛЕКСАНДР\SOURCE\REPOS\CPP2\DEBUG\CPP2.OBJ|C:\USERS\АЛЕКСАНДР\SOURCE\REPOS\CPP2\DEBUG\HELPERS.OBJ
C:\USERS\Александр\SOURCE\REPOS\CPP2\DEBUG\CPP2.EXE
C:\USERS\Александр\SOURCE\REPOS\CPP2\DEBUG\CPP2.ILK
C:\USERS\АЛЕКСАНДР\SOURCE\REPOS\CPP2\DEBUG\CPP2.PDB
